mips.vcd
$date
	Mon Jun 30 14:16:39 2025
$end
$version
	Icarus Verilog
$end
$timescale
	1s
$end
$scope module test_mips32 $end
$var reg 1 ! clk1 $end
$var reg 1 " clk2 $end
$var integer 32 # k1 [31:0] $end
$var integer 32 $ k2 [31:0] $end
$scope module mips $end
$var wire 1 ! clk1 $end
$var wire 1 " clk2 $end
$var parameter 6 % add $end
$var parameter 6 & addi $end
$var parameter 6 ' and_ $end
$var parameter 6 ( beqz $end
$var parameter 6 ) bneqz $end
$var parameter 3 * branch $end
$var parameter 3 + halt $end
$var parameter 6 , hlt $end
$var parameter 3 - load $end
$var parameter 6 . lw $end
$var parameter 6 / mul $end
$var parameter 6 0 or_ $end
$var parameter 3 1 rm_alu $end
$var parameter 3 2 rr_alu $end
$var parameter 6 3 slt $end
$var parameter 6 4 slti $end
$var parameter 3 5 store $end
$var parameter 6 6 sub $end
$var parameter 6 7 subi $end
$var parameter 6 8 sw $end
$var reg 32 9 ex_mem_aluout [31:0] $end
$var reg 32 : ex_mem_b [31:0] $end
$var reg 1 ; ex_mem_cond $end
$var reg 32 < ex_mem_ir [31:0] $end
$var reg 3 = ex_mem_type [2:0] $end
$var reg 1 > halted $end
$var reg 32 ? id_ex_a [31:0] $end
$var reg 32 @ id_ex_b [31:0] $end
$var reg 32 A id_ex_imm [31:0] $end
$var reg 32 B id_ex_ir [31:0] $end
$var reg 32 C id_ex_npc [31:0] $end
$var reg 3 D id_ex_type [2:0] $end
$var reg 32 E if_id_ir [31:0] $end
$var reg 32 F if_id_npc [31:0] $end
$var reg 32 G mem_wb_aluout [31:0] $end
$var reg 32 H mem_wb_ir [31:0] $end
$var reg 32 I mem_wb_lmd [31:0] $end
$var reg 3 J mem_wb_type [2:0] $end
$var reg 32 K pc [31:0] $end
$var reg 1 L taken_branch $end
$upscope $end
$upscope $end
$enddefinitions $end
$comment Show the parameter values. $end
$dumpall
b1001 8
b1011 7
b1 6
b11 5
b1100 4
b100 3
b0 2
b1 1
b11 0
b101 /
b1000 .
b10 -
b111111 ,
b101 +
b100 *
b1101 )
b1110 (
b10 '
b1010 &
b0 %
$end
#0
$dumpvars
0L
b0 K
bx J
bx I
bx H
bx G
bx F
bx E
bx D
bx C
bx B
bx A
bx @
bx ?
0>
bx =
bx <
x;
bx :
bx 9
bx $
b11111 #
0"
0!
$end
#5
0!
#7
b1 K
b1 F
b101000000000010000000000001010 E
#10
b1010 A
b101000000000010000000000001010 B
b1 C
b0 ?
0"
#12
b1 D
b1 @
#15
0!
#17
b1010 9
b101000000000010000000000001010 <
b1 =
b10 K
b10 F
b101000000000100000000000010100 E
#20
b10100 A
b101000000000100000000000010100 B
b10 C
0"
#22
b1010 G
b101000000000010000000000001010 H
b1 J
b10 @
#25
0!
#27
b11 K
b11 F
b101000000000110000000000011001 E
b10100 9
b101000000000100000000000010100 <
#30
b11001 A
b101000000000110000000000011001 B
b11 C
0"
#32
b11 @
b10100 G
b101000000000100000000000010100 H
#35
0!
#37
b11001 9
b101000000000110000000000011001 <
b100 K
b100 F
b1100111001110111100000000000 E
#40
b111100000000000 A
b1100111001110111100000000000 B
b100 C
0"
#42
b11001 G
b101000000000110000000000011001 H
b0 D
b111 @
b111 ?
#45
0!
#47
b101 K
b101 F
b1000100010000000000000 E
b111 9
b1100111001110111100000000000 <
b0 =
#50
b10000000000000 A
b1000100010000000000000 B
b101 C
0"
#52
b10100 @
b1010 ?
b111 G
b1100111001110111100000000000 H
b0 J
#55
0!
#57
b11110 9
b1000100010000000000000 <
b110 K
b110 F
b1100111001110111100000000000 E
#60
b111100000000000 A
b1100111001110111100000000000 B
b110 C
0"
#62
b11110 G
b1000100010000000000000 H
b111 @
b111 ?
#65
0!
#67
b111 K
b111 F
b100000110010100000000000 E
b111 9
b1100111001110111100000000000 <
#70
b10100000000000 A
b100000110010100000000000 B
b111 C
0"
#72
b11001 @
b11110 ?
b111 G
b1100111001110111100000000000 H
#75
0!
#77
b110111 9
b100000110010100000000000 <
b1000 K
b1000 F
b11111100000000000000000000000000 E
#80
b0 A
b11111100000000000000000000000000 B
b1000 C
b0 @
b0 ?
0"
#82
b110111 G
b100000110010100000000000 H
b101 D
#85
0!
#87
b1001 K
b1001 F
bx E
b11111100000000000000000000000000 <
b101 =
#90
bx A
bx B
b1001 C
0"
#92
bx @
bx ?
b11111100000000000000000000000000 H
b101 J
#95
0!
#97
1>
bx <
b1010 K
b1010 F
#100
0"
#105
0!
#110
0"
#115
0!
#120
0"
#125
0!
#130
0"
#135
0!
#140
0"
#145
0!
#150
0"
#155
0!
#160
0"
#165
0!
#170
0"
#175
0!
#180
0"
#185
0!
#190
0"
#195
0!
#200
0"
#280
b110 $
